{
    "identifier": "krst.focus-mode-max",
    "name": "Focus Mode Max (latest)",
    "content_type": "SN|Theme",
    "area": "themes",
    "main": "dist/dist.css",
    "version": "0.0.1",
    "description": "Theme agnostic toggle to maximize the Focus Mode",
    "url": "https://marcaux.gitlab.io/sn-focus-mode-max/dist/dist.css",
    "download_url": "https://marcaux.gitlab.io/sn-focus-mode-max/sn-focus-mode-max.zip",
    "latest_url": "https://marcaux.gitlab.io/sn-focus-mode-max/ext.json",
    "marketing_url": "https://gitlab.com/marcaux/sn-focus-mode-max",
    "layerable": true
}